NAME,ISIN,Location,IssuerCountry,Sector,Market Cap
ADYEN,NL0012969182,Euronext Amsterdam,Netherlands,,
AEGON,NL0000303709,Euronext Amsterdam,Netherlands,,
AHOLD DEL,NL0011794037,Euronext Amsterdam,Netherlands,,
AKZO NOBEL,NL0013267909,Euronext Amsterdam,Netherlands,,
ARCELORMITTAL SA,LU1598757687,Euronext Amsterdam,Luxembourg,,
ASM INTERNATIONAL,NL0000334118,Euronext Amsterdam,Netherlands,,
ASML HOLDING,NL0010273215,Euronext Amsterdam,Netherlands,,
BE SEMICONDUCTOR,NL0012866412,Euronext Amsterdam,Netherlands,,
DSM KON,NL0000009827,Euronext Amsterdam,Netherlands,,
HEINEKEN,NL0000009165,Euronext Amsterdam,Netherlands,,
IMCD,NL0010801007,Euronext Amsterdam,Netherlands,,
ING GROEP N.V.,NL0011821202,Euronext Amsterdam,Netherlands,,
JUST EAT TAKEAWAY,NL0012015705,Euronext Amsterdam,Netherlands,,
KPN KON,NL0000009082,Euronext Amsterdam,Netherlands,,
NN GROUP,NL0010773842,Euronext Amsterdam,Netherlands,,
PHILIPS KON,NL0000009538,Euronext Amsterdam,Netherlands,,
PROSUS,NL0013654783,Euronext Amsterdam,Netherlands,,
RANDSTAD NV,NL0000379121,Euronext Amsterdam,Netherlands,,
RELX,GB00B2B0DG97,Euronext Amsterdam,United Kingdom,,
SHELL PLC,GB00BP6MXD84,Euronext Amsterdam,United Kingdom,,
SIGNIFY NV,NL0011821392,Euronext Amsterdam,Netherlands,,
UMG,NL0015000IY2,Euronext Amsterdam,Netherlands,,
UNIBAIL-RODAMCO-WE,FR0013326246,Euronext Amsterdam,France,,
UNILEVER,GB00B10RZP78,Euronext Amsterdam,United Kingdom,,
WOLTERS KLUWER,NL0000395903,Euronext Amsterdam,Netherlands,,
