Date,0
2019-03-20 00:00:00+00:00,100.57484279630395
2019-03-21 00:00:00+00:00,110.292939696004
2019-03-25 00:00:00+00:00,109.00120057985609
2019-03-26 00:00:00+00:00,121.52752183438398
2019-03-27 00:00:00+00:00,120.24878125744405
2019-03-28 00:00:00+00:00,124.37110083756903
2019-03-29 00:00:00+00:00,140.48659218504898
2019-04-01 00:00:00+00:00,148.31988262862396
2019-04-02 00:00:00+00:00,158.94741988522512
2019-04-03 00:00:00+00:00,160.78592657433595
2019-04-04 00:00:00+00:00,162.32357296180896
2019-04-05 00:00:00+00:00,163.72203832022504
2019-04-08 00:00:00+00:00,172.27801070680104
2019-04-09 00:00:00+00:00,164.918695393449
2019-04-10 00:00:00+00:00,183.63240653159994
2019-04-11 00:00:00+00:00,176.654864747281
2019-06-17 00:00:00+00:00,82.3821240240809
2019-06-18 00:00:00+00:00,71.95837253945598
2019-06-19 00:00:00+00:00,89.17113692545604
2019-06-20 00:00:00+00:00,93.77966878712098
2019-06-21 00:00:00+00:00,82.31076161798396
2019-06-24 00:00:00+00:00,106.02797881020896
2019-06-25 00:00:00+00:00,117.6341999503291
2019-06-26 00:00:00+00:00,114.13773881640003
2019-06-27 00:00:00+00:00,108.48437663856899
2019-06-28 00:00:00+00:00,122.69961907122504
2019-07-03 00:00:00+00:00,127.28274294721601
2019-07-05 00:00:00+00:00,136.17454111092098
2019-07-08 00:00:00+00:00,134.74758004220092
2019-07-10 00:00:00+00:00,151.83809154009995
2019-09-09 00:00:00+00:00,111.93534157876897
2019-09-10 00:00:00+00:00,134.56995480840098
2019-09-11 00:00:00+00:00,129.21953447422501
2019-09-13 00:00:00+00:00,120.57173652968095
2019-09-16 00:00:00+00:00,142.62233478964885
2019-09-17 00:00:00+00:00,128.47207507610003
2019-09-18 00:00:00+00:00,134.082382924836
2019-09-19 00:00:00+00:00,134.1052335925761
2019-09-30 00:00:00+00:00,157.69560006368397
2019-10-22 00:00:00+00:00,162.33842921584403
2019-12-24 00:00:00+00:00,102.56096461922502
2019-12-26 00:00:00+00:00,117.92515083278394
2019-12-27 00:00:00+00:00,111.94288582900093
2019-12-31 00:00:00+00:00,117.32581788771603
2020-01-02 00:00:00+00:00,132.96029445000897
2020-01-03 00:00:00+00:00,119.76307846406402
2020-01-06 00:00:00+00:00,129.2582739364
2020-01-08 00:00:00+00:00,135.911183343844
2020-01-09 00:00:00+00:00,134.474880661641
2020-01-13 00:00:00+00:00,151.18222378684112
2020-01-14 00:00:00+00:00,152.912478065984
2020-03-13 00:00:00+00:00,332.2665186980257
2020-03-18 00:00:00+00:00,1054.3411347608999
2020-06-25 00:00:00+00:00,150.1737228245206
2020-06-29 00:00:00+00:00,137.93195638593602
2020-06-30 00:00:00+00:00,160.14643712024088
2020-07-01 00:00:00+00:00,178.76771297985613
2020-07-02 00:00:00+00:00,162.67883592272398
2020-07-06 00:00:00+00:00,234.9821285556642
2020-07-07 00:00:00+00:00,185.17854490902494
2020-07-08 00:00:00+00:00,245.21211614598406
2020-07-09 00:00:00+00:00,239.85238184345587
2020-07-10 00:00:00+00:00,297.5387347172839
2020-08-21 00:00:00+00:00,255.5328961025001
2020-08-24 00:00:00+00:00,347.76580446302484
2020-10-09 00:00:00+00:00,121.44894673209984
2020-10-12 00:00:00+00:00,116.95080185456084
2020-12-17 00:00:00+00:00,155.92920911068097
2020-12-24 00:00:00+00:00,143.8390326864
2020-12-28 00:00:00+00:00,185.46142878348087
2020-12-29 00:00:00+00:00,170.77716596302508
2020-12-30 00:00:00+00:00,170.41476574902504
2021-01-07 00:00:00+00:00,185.90384424422393
2021-01-08 00:00:00+00:00,206.48465631322512
2021-01-13 00:00:00+00:00,213.23118180276094
2021-01-25 00:00:00+00:00,221.47178558922496
2021-03-11 00:00:00+00:00,203.34217113128085
2021-03-12 00:00:00+00:00,221.49745394456085
2021-03-15 00:00:00+00:00,227.47174260249994
2021-03-17 00:00:00+00:00,248.07488124824883
2021-03-18 00:00:00+00:00,248.49224024320392
2021-03-19 00:00:00+00:00,359.6589432439207
2021-06-23 00:00:00+00:00,128.143933767424
2021-06-24 00:00:00+00:00,177.02814211756893
2021-06-28 00:00:00+00:00,166.95472846355605
2021-06-29 00:00:00+00:00,172.97225512473588
2021-06-30 00:00:00+00:00,176.808848265249
2021-07-01 00:00:00+00:00,172.30822574288396
2021-09-30 00:00:00+00:00,244.75936486432914
2021-11-19 00:00:00+00:00,167.28671016936892
2021-11-26 00:00:00+00:00,488.24488446968087
2019-04-30 00:00:00+00:00,68.83563163220101
2019-05-01 00:00:00+00:00,59.710155070724
2019-05-02 00:00:00+00:00,61.074289486083984
2019-05-06 00:00:00+00:00,68.08325786802499
2019-05-07 00:00:00+00:00,5.066452013824005
2019-05-08 00:00:00+00:00,-3.0845558684159187
2019-05-09 00:00:00+00:00,12.137710402063988
2019-05-10 00:00:00+00:00,20.883817154025053
2019-05-13 00:00:00+00:00,-15.054248525296032
2019-05-14 00:00:00+00:00,-25.67915460721605
2019-07-30 00:00:00+00:00,80.46890406915594
2019-07-31 00:00:00+00:00,57.753691751843974
2019-08-01 00:00:00+00:00,54.01679128276891
2019-08-05 00:00:00+00:00,2.767127913215859
2019-08-06 00:00:00+00:00,54.74685175936901
2019-08-12 00:00:00+00:00,44.486812966689
2019-08-30 00:00:00+00:00,22.353538925456064
2019-10-28 00:00:00+00:00,113.682610192401
2019-10-29 00:00:00+00:00,95.33670963942401
2019-11-01 00:00:00+00:00,102.61992872892897
2019-11-06 00:00:00+00:00,99.08253306625596
2019-11-07 00:00:00+00:00,96.22147111694403
2019-11-12 00:00:00+00:00,73.80124433639996
2019-11-13 00:00:00+00:00,76.37086064062495
2019-11-14 00:00:00+00:00,64.93195153107595
2019-11-15 00:00:00+00:00,71.52959303676893
2019-11-22 00:00:00+00:00,63.56534203012902
2019-12-02 00:00:00+00:00,53.04227543617603
2019-12-03 00:00:00+00:00,43.71178564326402
2019-12-05 00:00:00+00:00,47.447711233280955
2019-12-09 00:00:00+00:00,34.038030418495964
2019-12-10 00:00:00+00:00,43.96643148787595
2020-01-27 00:00:00+00:00,49.469011044643935
2020-01-28 00:00:00+00:00,58.553279333763925
2020-01-29 00:00:00+00:00,36.20661197420097
2020-01-30 00:00:00+00:00,51.94310754984903
2020-01-31 00:00:00+00:00,31.144947882436043
2020-02-03 00:00:00+00:00,20.929586973503945
2020-02-24 00:00:00+00:00,-66.9747056492642
2020-02-25 00:00:00+00:00,-41.99676158651107
2020-02-26 00:00:00+00:00,-33.701782359375215
2020-02-27 00:00:00+00:00,-205.6206158642707
2020-03-03 00:00:00+00:00,-185.60755978803888
2020-03-04 00:00:00+00:00,-105.21771338363897
2020-03-09 00:00:00+00:00,-283.4043791099998
2020-03-11 00:00:00+00:00,-161.50304624043883
2020-03-12 00:00:00+00:00,-478.904800099584
2020-03-16 00:00:00+00:00,-645.3514841094375
2020-03-17 00:00:00+00:00,-419.7796170229767
2020-03-26 00:00:00+00:00,-647.1508318920796
2020-03-27 00:00:00+00:00,-799.7867010164787
2020-06-11 00:00:00+00:00,-8.305609455638887
2020-06-12 00:00:00+00:00,-4.382844562684227
2020-06-19 00:00:00+00:00,-5.973515434176079
2020-07-30 00:00:00+00:00,47.70109628217614
2020-08-20 00:00:00+00:00,42.838570004496034
2020-09-03 00:00:00+00:00,-69.39295856467129
2020-09-04 00:00:00+00:00,9.6691180353439
2020-09-10 00:00:00+00:00,-56.17512053943915
2020-10-19 00:00:00+00:00,-38.871243855035914
2020-10-20 00:00:00+00:00,-61.46493457139104
2020-10-26 00:00:00+00:00,-167.0435822353761
2020-10-27 00:00:00+00:00,-157.37042782203912
2020-10-28 00:00:00+00:00,-359.06083987244426
2020-10-29 00:00:00+00:00,-271.8060102835112
2020-10-30 00:00:00+00:00,-346.5762761608711
2020-11-02 00:00:00+00:00,-245.11686042240012
2021-01-27 00:00:00+00:00,-71.28238687983605
2021-01-29 00:00:00+00:00,-27.82636669503904
2021-02-01 00:00:00+00:00,10.589678034575854
2021-02-26 00:00:00+00:00,-23.931010410974977
2021-04-12 00:00:00+00:00,72.59121037646383
2021-04-29 00:00:00+00:00,54.89723055092895
2021-04-30 00:00:00+00:00,73.555662590096
2021-05-03 00:00:00+00:00,77.62697292160004
2021-05-04 00:00:00+00:00,76.88979987988114
2021-05-05 00:00:00+00:00,56.95477556489996
2021-05-11 00:00:00+00:00,33.761882937721055
2021-05-12 00:00:00+00:00,-57.582328915839014
2021-05-13 00:00:00+00:00,9.755602650224887
2021-07-30 00:00:00+00:00,80.301336810809
2021-08-02 00:00:00+00:00,47.748042412644
2021-08-04 00:00:00+00:00,75.79699844639998
2021-08-18 00:00:00+00:00,46.938979406049015
2021-09-10 00:00:00+00:00,53.73192515240001
2021-09-15 00:00:00+00:00,55.77583751299602
2021-09-20 00:00:00+00:00,30.211749456401094
2021-09-21 00:00:00+00:00,37.05530781200389
2021-09-28 00:00:00+00:00,2.811011632656175
2021-09-29 00:00:00+00:00,25.093397835204144
2021-11-11 00:00:00+00:00,88.00429118062493
2021-11-15 00:00:00+00:00,69.46024887203595
2021-11-16 00:00:00+00:00,77.12022562467598
2021-11-23 00:00:00+00:00,-16.000666395516134
